<?xml version="1.0" encoding="utf-8"?>
<!-- Generator: Adobe Illustrator 24.2.0, SVG Export Plug-In . SVG Version: 6.00 Build 0)  -->
<svg version="1.0" id="Layer_1" xmlns="http://www.w3.org/2000/svg" xmlns:xlink="http://www.w3.org/1999/xlink" x="0px" y="0px"
	 viewBox="0 0 500 310" enable-background="new 0 0 500 310" xml:space="preserve">
<g id="BG" display="none">
	<rect display="inline" width="500" height="310"/>
</g>
<g>
	<g>
		<g>
			<circle fill="#58595B" cx="323.37" cy="111.23" r="47.3"/>
			<circle fill="#FFFFFF" cx="323.37" cy="111.23" r="41.89"/>
		</g>
		<path fill="#D1D3D4" d="M61.71,169L61.71,169c3.78-31.38,30.44-55.05,62.02-55.05c9.48,0,18.7,2.06,27,6.01
			c4.87-10.23,12.27-19.02,21.64-25.64c11.21-7.92,24.42-12.11,38.19-12.11c9.86,0,19.57,2.2,28.41,6.39
			c5.68-15.03,15.65-28.43,28.52-38.2C282.51,39.02,300.43,33,319.33,33c45.73,0,83.23,35.95,85.72,81.08
			c18.89,0.5,36.24,9.33,47.82,24.4l0,0c-9.98-12.99-33.15-14.25-49.5-14.25c-0.28,0-0.56,0-0.84,0c-0.77,0-1.49-0.01-2.14,0.03
			l-5.4,0.3l0.03-5.69c0-41.74-33.95-75.69-75.68-75.69c-33.31,0-63.15,22.28-72.58,54.19l-1.86,6.29l-5.63-3.36
			c-8.65-5.17-18.58-7.9-28.7-7.9c-23.29,0-44.41,14.65-52.56,36.46l-2.14,5.73l-5.24-3.15c-7.96-4.78-17.26-7.31-26.89-7.31
			C97.3,124.12,64.88,142.72,61.71,169z"/>
		<path fill="#00AEEF" d="M341.59,108.77c-8.06,0-14.6-6.54-14.6-14.6c0-4.23,1.8-8.03,4.67-10.7c-2.63-0.79-5.41-1.21-8.3-1.21
			c-15.99,0-28.95,12.96-28.95,28.95s12.96,28.95,28.95,28.95c15.99,0,28.95-12.96,28.95-28.95c0-2.2-0.25-4.35-0.72-6.41
			C348.98,107.26,345.47,108.77,341.59,108.77z"/>
		<g>
			<path fill="#D1D3D4" d="M71.27,203.42c-0.68,1.25-1.74,1.88-3.16,1.88c-0.85,0-1.82-0.31-2.9-0.94s-2.4-1.32-3.97-2.09
				c-1.57-0.77-3.43-1.48-5.59-2.13c-2.16-0.65-4.72-0.98-7.68-0.98c-2.56,0-4.87,0.33-6.91,0.98c-2.05,0.65-3.8,1.55-5.25,2.69
				s-2.56,2.46-3.33,3.97s-1.15,3.15-1.15,4.91c0,2.22,0.64,4.07,1.92,5.55c1.28,1.48,2.97,2.76,5.08,3.84
				c2.1,1.08,4.49,2.04,7.17,2.86c2.67,0.83,5.42,1.71,8.24,2.65c2.82,0.94,5.56,1.98,8.24,3.12c2.67,1.14,5.06,2.56,7.17,4.27
				c2.1,1.71,3.8,3.8,5.08,6.27s1.92,5.45,1.92,8.92c0,3.98-0.71,7.67-2.13,11.05c-1.42,3.39-3.53,6.32-6.32,8.79
				c-2.79,2.48-6.2,4.43-10.24,5.85s-8.71,2.13-14,2.13c-6.03,0-11.5-0.98-16.39-2.94s-9.05-4.48-12.46-7.55l3.59-5.8
				c0.45-0.74,0.99-1.31,1.62-1.71c0.63-0.4,1.45-0.6,2.48-0.6c1.02,0,2.1,0.4,3.24,1.2c1.14,0.8,2.52,1.68,4.14,2.65
				c1.62,0.97,3.59,1.85,5.89,2.65c2.3,0.8,5.19,1.2,8.66,1.2c2.96,0,5.55-0.38,7.77-1.15s4.07-1.81,5.55-3.12s2.57-2.82,3.29-4.52
				c0.71-1.71,1.07-3.53,1.07-5.46c0-2.39-0.64-4.37-1.92-5.93s-2.97-2.9-5.08-4.01c-2.11-1.11-4.51-2.08-7.21-2.9
				c-2.7-0.82-5.46-1.69-8.28-2.6s-5.58-1.95-8.28-3.12c-2.7-1.17-5.11-2.63-7.21-4.4c-2.11-1.76-3.8-3.94-5.08-6.53
				s-1.92-5.73-1.92-9.43c0-3.3,0.68-6.47,2.05-9.52c1.37-3.04,3.36-5.72,5.98-8.02s5.83-4.14,9.65-5.51
				c3.81-1.37,8.16-2.05,13.06-2.05c5.69,0,10.8,0.9,15.32,2.69c4.52,1.79,8.44,4.25,11.74,7.38L71.27,203.42z"/>
			<path fill="#D1D3D4" d="M130.08,187.8c5.18,0,9.96,0.87,14.34,2.6c4.38,1.74,8.17,4.24,11.35,7.51
				c3.19,3.27,5.68,7.31,7.47,12.12c1.79,4.81,2.69,10.29,2.69,16.43c0,2.39-0.26,3.98-0.77,4.78c-0.51,0.8-1.48,1.19-2.9,1.19
				h-57.53c0.11,5.46,0.85,10.22,2.22,14.25c1.37,4.04,3.24,7.41,5.63,10.11c2.39,2.7,5.23,4.72,8.54,6.06
				c3.3,1.34,7,2.01,11.1,2.01c3.81,0,7.1-0.44,9.86-1.32s5.13-1.84,7.13-2.86c1.99-1.02,3.66-1.98,4.99-2.86
				c1.34-0.88,2.49-1.32,3.46-1.32c1.25,0,2.22,0.48,2.9,1.45l4.27,5.55c-1.88,2.28-4.13,4.25-6.74,5.93
				c-2.62,1.68-5.42,3.06-8.41,4.14c-2.99,1.08-6.08,1.89-9.26,2.43c-3.19,0.54-6.35,0.81-9.47,0.81c-5.98,0-11.48-1.01-16.52-3.03
				c-5.04-2.02-9.39-4.98-13.06-8.88s-6.53-8.72-8.58-14.47s-3.07-12.35-3.07-19.8c0-6.03,0.92-11.66,2.77-16.9
				c1.85-5.23,4.51-9.77,7.98-13.61s7.71-6.86,12.72-9.05C118.18,188.9,123.82,187.8,130.08,187.8z M130.42,198.98
				c-7.34,0-13.12,2.12-17.33,6.36s-6.83,10.11-7.85,17.63h47.03c0-3.53-0.48-6.76-1.45-9.69c-0.97-2.93-2.39-5.46-4.27-7.6
				s-4.17-3.78-6.87-4.95C136.98,199.57,133.89,198.98,130.42,198.98z"/>
			<path fill="#D1D3D4" d="M219.53,187.8c5.18,0,9.96,0.87,14.34,2.6c4.38,1.74,8.17,4.24,11.35,7.51
				c3.19,3.27,5.68,7.31,7.47,12.12c1.79,4.81,2.69,10.29,2.69,16.43c0,2.39-0.26,3.98-0.77,4.78c-0.51,0.8-1.48,1.19-2.9,1.19
				h-57.53c0.11,5.46,0.85,10.22,2.22,14.25c1.37,4.04,3.24,7.41,5.63,10.11c2.39,2.7,5.23,4.72,8.54,6.06
				c3.3,1.34,7,2.01,11.1,2.01c3.81,0,7.1-0.44,9.86-1.32s5.13-1.84,7.13-2.86c1.99-1.02,3.66-1.98,4.99-2.86
				c1.34-0.88,2.49-1.32,3.46-1.32c1.25,0,2.22,0.48,2.9,1.45l4.27,5.55c-1.88,2.28-4.13,4.25-6.74,5.93
				c-2.62,1.68-5.42,3.06-8.41,4.14c-2.99,1.08-6.08,1.89-9.26,2.43c-3.19,0.54-6.35,0.81-9.47,0.81c-5.98,0-11.48-1.01-16.52-3.03
				c-5.04-2.02-9.39-4.98-13.06-8.88s-6.53-8.72-8.58-14.47s-3.07-12.35-3.07-19.8c0-6.03,0.92-11.66,2.77-16.9
				c1.85-5.23,4.51-9.77,7.98-13.61s7.71-6.86,12.72-9.05C207.63,188.9,213.27,187.8,219.53,187.8z M219.87,198.98
				c-7.34,0-13.12,2.12-17.33,6.36s-6.83,10.11-7.85,17.63h47.03c0-3.53-0.48-6.76-1.45-9.69c-0.97-2.93-2.39-5.46-4.27-7.6
				s-4.17-3.78-6.87-4.95C226.43,199.57,223.34,198.98,219.87,198.98z"/>
			<path fill="#D1D3D4" d="M324.26,203.42c-0.68,1.25-1.74,1.88-3.16,1.88c-0.85,0-1.82-0.31-2.9-0.94s-2.4-1.32-3.97-2.09
				c-1.57-0.77-3.43-1.48-5.59-2.13c-2.16-0.65-4.72-0.98-7.68-0.98c-2.56,0-4.87,0.33-6.91,0.98c-2.05,0.65-3.8,1.55-5.25,2.69
				s-2.56,2.46-3.33,3.97s-1.15,3.15-1.15,4.91c0,2.22,0.64,4.07,1.92,5.55s2.97,2.76,5.08,3.84c2.1,1.08,4.49,2.04,7.17,2.86
				c2.67,0.83,5.42,1.71,8.24,2.65c2.82,0.94,5.56,1.98,8.24,3.12c2.67,1.14,5.06,2.56,7.17,4.27c2.1,1.71,3.8,3.8,5.08,6.27
				s1.92,5.45,1.92,8.92c0,3.98-0.71,7.67-2.13,11.05c-1.42,3.39-3.53,6.32-6.32,8.79c-2.79,2.48-6.2,4.43-10.24,5.85
				c-4.04,1.42-8.71,2.13-14,2.13c-6.03,0-11.5-0.98-16.39-2.94c-4.89-1.96-9.05-4.48-12.46-7.55l3.58-5.8
				c0.45-0.74,0.99-1.31,1.62-1.71s1.45-0.6,2.48-0.6s2.1,0.4,3.24,1.2c1.14,0.8,2.52,1.68,4.14,2.65c1.62,0.97,3.58,1.85,5.89,2.65
				c2.3,0.8,5.19,1.2,8.66,1.2c2.96,0,5.55-0.38,7.77-1.15s4.07-1.81,5.55-3.12c1.48-1.31,2.57-2.82,3.29-4.52
				c0.71-1.71,1.07-3.53,1.07-5.46c0-2.39-0.64-4.37-1.92-5.93s-2.97-2.9-5.08-4.01s-4.51-2.08-7.21-2.9
				c-2.7-0.82-5.46-1.69-8.28-2.6s-5.58-1.95-8.28-3.12s-5.11-2.63-7.21-4.4c-2.11-1.76-3.8-3.94-5.08-6.53s-1.92-5.73-1.92-9.43
				c0-3.3,0.68-6.47,2.05-9.52c1.37-3.04,3.36-5.72,5.98-8.02c2.62-2.3,5.83-4.14,9.65-5.51c3.81-1.37,8.17-2.05,13.06-2.05
				c5.69,0,10.8,0.9,15.32,2.69c4.52,1.79,8.44,4.25,11.74,7.38L324.26,203.42z"/>
			<path fill="#D1D3D4" d="M383.07,187.8c5.18,0,9.96,0.87,14.34,2.6c4.38,1.74,8.17,4.24,11.35,7.51
				c3.19,3.27,5.68,7.31,7.47,12.12s2.69,10.29,2.69,16.43c0,2.39-0.26,3.98-0.77,4.78c-0.51,0.8-1.48,1.19-2.9,1.19h-57.53
				c0.11,5.46,0.85,10.22,2.22,14.25c1.37,4.04,3.24,7.41,5.63,10.11c2.39,2.7,5.23,4.72,8.54,6.06c3.3,1.34,7,2.01,11.1,2.01
				c3.81,0,7.1-0.44,9.86-1.32c2.76-0.88,5.13-1.84,7.13-2.86c1.99-1.02,3.66-1.98,4.99-2.86c1.34-0.88,2.49-1.32,3.46-1.32
				c1.25,0,2.22,0.48,2.9,1.45l4.27,5.55c-1.88,2.28-4.13,4.25-6.74,5.93c-2.62,1.68-5.42,3.06-8.41,4.14
				c-2.99,1.08-6.07,1.89-9.26,2.43c-3.19,0.54-6.35,0.81-9.47,0.81c-5.97,0-11.48-1.01-16.52-3.03c-5.04-2.02-9.39-4.98-13.06-8.88
				c-3.67-3.9-6.53-8.72-8.58-14.47s-3.07-12.35-3.07-19.8c0-6.03,0.92-11.66,2.77-16.9c1.85-5.23,4.51-9.77,7.98-13.61
				s7.71-6.86,12.72-9.05C371.17,188.9,376.81,187.8,383.07,187.8z M383.41,198.98c-7.34,0-13.12,2.12-17.33,6.36
				s-6.83,10.11-7.85,17.63h47.03c0-3.53-0.48-6.76-1.45-9.69c-0.97-2.93-2.39-5.46-4.27-7.6c-1.88-2.13-4.17-3.78-6.87-4.95
				C389.97,199.57,386.88,198.98,383.41,198.98z"/>
			<path fill="#D1D3D4" d="M464.5,277c-6.83,0-12.08-1.91-15.75-5.72s-5.51-9.3-5.51-16.47v-52.92h-10.41
				c-0.91,0-1.68-0.27-2.3-0.81c-0.63-0.54-0.94-1.38-0.94-2.52v-6.06l14.17-1.79l3.5-26.72c0.11-0.85,0.48-1.55,1.11-2.09
				c0.63-0.54,1.42-0.81,2.39-0.81h7.68v29.79h24.75v11.01h-24.75v51.9c0,3.64,0.88,6.35,2.65,8.11c1.76,1.76,4.04,2.65,6.83,2.65
				c1.59,0,2.97-0.21,4.14-0.64c1.17-0.43,2.18-0.9,3.03-1.41s1.58-0.98,2.18-1.41s1.12-0.64,1.58-0.64c0.8,0,1.51,0.48,2.13,1.45
				l4.44,7.26c-2.62,2.45-5.78,4.37-9.47,5.76C472.24,276.3,468.42,277,464.5,277z"/>
		</g>
	</g>
</g>
</svg>
